file,language,name
animals,es,Animales
car_brands,es,Marcas de coche
gemstones,es,Piedras preciosas
japanese_gastronomy,es,Gastronomía japonesa
legendary_pokemon,es,Pokémon legendarios
negative_traits,es,Rasgos negativos
shonen_anime,es,Animes shōnen
sorcerer_types,es,Tipos de hechicero
weapons,es,Armas
fruits,es,Frutas
Netflix_series,es,Series de Netflix
Telecinco_celebrities,es,Famosos de Telecinco
crazy_movie_title_translations,es,Traducciones locas de títulos de películas
Dragon_Ball_characters,es,Personajes de Dragon Ball
Disney_movies,es,Películas de Disney
pizza_types,es,Tipos de pizza
most_common_spanish_words,es,Palabras más comunes
most_common_english_words,en,Most common words
countries_and_capitals,es,Países y capitales
Nintendo_games,es,Juegos de Nintendo
best_seller_games,es,Juegos más vendidos
canarianisms,es,Canarismos
math_creatures,es,Criaturas matemáticas
words_with_all_vowels,es,Palabras con las 5 vocales
insults_of_the_historical_tiresome,es,Insultos del cansino histórico
porn_categories,es,Categorías porno
ways_to_call_someone_fat,es,Formas de llamar a alguien “gordo”
ice_cream_flavours,es,Sabores de helado
homophobic_slurs,es,Insultos homófobos
only-one-vowel_words,es,Palabras con solo una vocal
